<?xml version="1.0" encoding="utf-8"?>
<!-- Generator: Adobe Illustrator 19.1.0, SVG Export Plug-In . SVG Version: 6.00 Build 0)  -->
<svg version="1.1" id="icon-download" xmlns="http://www.w3.org/2000/svg" xmlns:xlink="http://www.w3.org/1999/xlink" x="0px"
	 y="0px" viewBox="107.2 209.2 235.7 281.6" style="enable-background:new 107.2 209.2 235.7 281.6;" xml:space="preserve">
<style type="text/css">
	.st0{fill:#333333;}
</style>
<path class="st0" d="M124.1,490.8h201.8c9.4,0,17-7.6,17-17v0c0-9.4-7.6-17-17-17H124.1c-9.4,0-17,7.6-17,17v0
	C107.2,483.2,114.8,490.8,124.1,490.8z"/>
<path class="st0" d="M236.9,439.9l59.3-59.3c6.6-6.6,6.6-17.4,0-24v0c-6.6-6.6-17.4-6.6-24,0l-59.3,59.3c-6.6,6.6-6.6,17.4,0,24h0
	C219.5,446.5,230.2,446.5,236.9,439.9z"/>
<path class="st0" d="M213.1,439.9l-59.3-59.3c-6.6-6.6-6.6-17.4,0-24l0,0c6.6-6.6,17.4-6.6,24,0l59.3,59.3c6.6,6.6,6.6,17.4,0,24h0
	C230.5,446.5,219.8,446.5,213.1,439.9z"/>
<path class="st0" d="M208,226.2v201.8c0,9.4,7.6,17,17,17h0c9.4,0,17-7.6,17-17V226.2c0-9.4-7.6-17-17-17h0
	C215.6,209.2,208,216.8,208,226.2z"/>
</svg>
